%YAML 1.1
%TAG !u! tag:unity3d.com,2011:
--- !u!114 &11400000
MonoBehaviour:
  m_ObjectHideFlags: 0
  m_CorrespondingSourceObject: {fileID: 0}
  m_PrefabInstance: {fileID: 0}
  m_PrefabAsset: {fileID: 0}
  m_GameObject: {fileID: 0}
  m_Enabled: 1
  m_EditorHideFlags: 0
  m_Script: {fileID: 11500000, guid: 01e5015e1852d28439ebe4da733c249c, type: 3}
  m_Name: WeaponMele
  m_EditorClassIdentifier: 
  weaponName: WeaponMele
  damage: 1
  range: 0.5
  fireRate: 1
  bullet: {fileID: 0}
  bulletSpeed: 0
