%YAML 1.1
%TAG !u! tag:unity3d.com,2011:
--- !u!78 &1
TagManager:
  serializedVersion: 2
  tags: []
  layers:
  - Default
  - TransparentFX
  - Ignore Raycast
  - 
  - Water
  - UI
  - 
  - 
  - 
  - 
  - 
  - 
  - 
  - 
  - 
  - 
  - 
  - 
  - 
  - 
  - 
  - 
  - 
  - 
  - 
  - 
  - 
  - 
  - 
  - 
  - 
  - 
  m_SortingLayers:
  - name: Default
    uniqueID: 0
    locked: 0
  - name: BackGround
    uniqueID: 2804841433
    locked: 0
  - name: Environment
    uniqueID: 2414647087
    locked: 0
  - name: Characters
    uniqueID: 319449357
    locked: 0
  - name: Effects
    uniqueID: 3705653961
    locked: 0
  - name: UI
    uniqueID: 3370968741
    locked: 0
